src/systemc/tests/systemc/tracing/vcd_trace/test02/golden/test02.vcd

$timescale
     1 ps
$end

$scope module SystemC $end
$var wire    8  aaaaa  Char [7:0]  $end
$var wire   16  aaaab  Short [15:0]  $end
$var wire   32  aaaac  Int [31:0]  $end
$var wire   32  aaaad  Long [31:0]  $end
$var wire    1  aaaae  Clock       $end
$upscope $end
$enddefinitions  $end

$comment
All initial values are dumped below at time 0 sec = 0 timescale units.
$end

$dumpvars
b111 aaaaa
b11111 aaaab
b1111111111 aaaac
b11111111111 aaaad
1aaaae
$end

#10000
b1 aaaaa
b100000 aaaab
b10000000000 aaaac
b100000000000 aaaad
0aaaae

#20000
b111 aaaaa
b11111 aaaab
b1111111111 aaaac
b11111111111 aaaad
1aaaae

#30000
b1 aaaaa
b100000 aaaab
b10000000000 aaaac
b100000000000 aaaad
0aaaae

#40000
b111 aaaaa
b11111 aaaab
b1111111111 aaaac
b11111111111 aaaad
1aaaae

#50000
b1 aaaaa
b100000 aaaab
b10000000000 aaaac
b100000000000 aaaad
0aaaae

#60000
b111 aaaaa
b11111 aaaab
b1111111111 aaaac
b11111111111 aaaad
1aaaae

#70000
b1 aaaaa
b100000 aaaab
b10000000000 aaaac
b100000000000 aaaad
0aaaae

#80000
b111 aaaaa
b11111 aaaab
b1111111111 aaaac
b11111111111 aaaad
1aaaae

#90000
b1 aaaaa
b100000 aaaab
b10000000000 aaaac
b100000000000 aaaad
0aaaae

#100000
b111 aaaaa
b11111 aaaab
b1111111111 aaaac
b11111111111 aaaad
1aaaae

#110000
b1 aaaaa
b100000 aaaab
b10000000000 aaaac
b100000000000 aaaad
0aaaae

#120000
b111 aaaaa
b11111 aaaab
b1111111111 aaaac
b11111111111 aaaad
1aaaae

#130000
b1 aaaaa
b100000 aaaab
b10000000000 aaaac
b100000000000 aaaad
0aaaae

#140000
b111 aaaaa
b11111 aaaab
b1111111111 aaaac
b11111111111 aaaad
1aaaae

#150000
b1 aaaaa
b100000 aaaab
b10000000000 aaaac
b100000000000 aaaad
0aaaae

#160000
b111 aaaaa
b11111 aaaab
b1111111111 aaaac
b11111111111 aaaad
1aaaae

#170000
b1 aaaaa
b100000 aaaab
b10000000000 aaaac
b100000000000 aaaad
0aaaae

#180000
b111 aaaaa
b11111 aaaab
b1111111111 aaaac
b11111111111 aaaad
1aaaae

#190000
b1 aaaaa
b100000 aaaab
b10000000000 aaaac
b100000000000 aaaad
0aaaae

